{
    "Gênesis": 0,
    "Êxodo": 1,
    "Levítico": 2,
    "Números": 3,
    "Deuteronômio": 4,
    "Josué": 5,
    "Juízes": 6,
    "Rute": 7,
    "1 Samuel": 8,
    "2 Samuel": 9,
    "1 Reis": 10,
    "2 Reis": 11,
    "1 Crônicas": 12,
    "2 Crônicas": 13,
    "Esdras": 14,
    "Neemias": 15,
    "Ester": 16,
    "Jó": 17,
    "Salmos": 18,
    "Provérbios": 19,
    "Eclesiastes": 20,
    "Cânticos": 21,
    "Isaías": 22,
    "Jeremias": 23,
    "Lamentações de Jeremias": 24,
    "Ezequiel": 25,
    "Daniel": 26,
    "Oséias": 27,
    "Joel": 28,
    "Amós": 29,
    "Obadias": 30,
    "Jonas": 31,
    "Miquéias": 32,
    "Naum": 33,
    "Habacuque": 34,
    "Sofonias": 35,
    "Ageu": 36,
    "Zacarias": 37,
    "Malaquias": 38,
    "Mateus": 39,
    "Marcos": 40,
    "Lucas": 41,
    "João": 42,
    "Atos": 43,
    "Romanos": 44,
    "1 Coríntios": 45,
    "2 Coríntios": 46,
    "Gálatas": 47,
    "Efésios": 48,
    "Filipenses": 49,
    "Colossenses": 50,
    "1 Tessalonicenses": 51,
    "2 Tessalonicenses": 52,
    "1 Timóteo": 53,
    "2 Timóteo": 54,
    "Tito": 55,
    "Filemom": 56,
    "Hebreus": 57,
    "Tiago": 58,
    "1 Pedro": 59,
    "2 Pedro": 60,
    "1 João": 61,
    "2 João": 62,
    "3 João": 63,
    "Judas": 64,
    "Apocalipse": 65
  }